{
  "emailIn":"Email in",
  "fbAds":"FB Ads",
  "magazineBoughtIn":"Magazine (bought in)",
  "magazineEditorial":"Magazine (editorial)",
  "groupBuying":"Group Buying",
  "bookingSites":"Booking Sites",
  "retail":"Retail",
  "others":"Others"
}